…
```r
library(dplyr)
library(hflights)
```

Convert data.frame into a tbl.


```r
hflights <- tbl_df(hflights)
hflights
```

```
## # A tibble: 227,496 × 21
##     Year Month DayofMonth DayOfWeek DepTime ArrTime UniqueCarrier
## *  <int> <int>      <int>     <int>   <int>   <int>         <chr>
## 1   2011     1          1         6    1400    1500            AA
## 2   2011     1          2         7    1401    1501            AA
## 3   2011     1          3         1    1352    1502            AA
## 4   2011     1          4         2    1403    1513            AA
## 5   2011     1          5         3    1405    1507            AA
## 6   2011     1          6         4    1359    1503            AA
## 7   2011     1          7         5    1359    1509            AA
## 8   2011     1          8         6    1355    1454            AA
## 9   2011     1          9         7    1443    1554            AA
## 10  2011     1         10         1    1443    1553            AA
## # ... with 227,486 more rows, and 14 more variables: FlightNum <int>,
## #   TailNum <chr>, ActualElapsedTime <int>, AirTime <int>, ArrDelay <int>,
## #   DepDelay <int>, Origin <chr>, Dest <chr>, Distance <int>,
## #   TaxiIn <int>, TaxiOut <int>, Cancelled <int>, CancellationCode <chr>,
## #   Diverted <int>
```
…
###`select()`

Example of `select()` function.


```r
select(hflights,ActualElapsedTime, AirTime, ArrDelay, DepDelay)
```

```
## # A tibble: 227,496 × 4
##    ActualElapsedTime AirTime ArrDelay DepDelay
## *              <int>   <int>    <int>    <int>
## 1                 60      40      -10        0
## 2                 60      45       -9        1
## 3                 70      48       -8       -8
## 4                 70      39        3        3
## 5                 62      44       -3        5
## 6                 64      45       -7       -1
## 7                 70      43       -1       -1
## 8                 59      40      -16       -5
## 9                 71      41       44       43
## 10                70      45       43       43
## # ... with 227,486 more rows
```
…
###`mutate()`

Example of `mutate()` function.


```r
mutate(hflights, ActualGroundTime = ActualElapsedTime - AirTime)
```

```
## # A tibble: 227,496 × 22
##     Year Month DayofMonth DayOfWeek DepTime ArrTime UniqueCarrier
##    <int> <int>      <int>     <int>   <int>   <int>         <chr>
## 1   2011     1          1         6    1400    1500            AA
## 2   2011     1          2         7    1401    1501            AA
## 3   2011     1          3         1    1352    1502            AA
## 4   2011     1          4         2    1403    1513            AA
## 5   2011     1          5         3    1405    1507            AA
## 6   2011     1          6         4    1359    1503            AA
## 7   2011     1          7         5    1359    1509            AA
## 8   2011     1          8         6    1355    1454            AA
## 9   2011     1          9         7    1443    1554            AA
## 10  2011     1         10         1    1443    1553            AA
## # ... with 227,486 more rows, and 15 more variables: FlightNum <int>,
## #   TailNum <chr>, ActualElapsedTime <int>, AirTime <int>, ArrDelay <int>,
## #   DepDelay <int>, Origin <chr>, Dest <chr>, Distance <int>,
## #   TaxiIn <int>, TaxiOut <int>, Cancelled <int>, CancellationCode <chr>,
## #   Diverted <int>, ActualGroundTime <int>
```

###`filter()`

Example of `filter()` function.


```r
filter(hflights,Distance > 1000)
```

```
## # A tibble: 65,389 × 21
##     Year Month DayofMonth DayOfWeek DepTime ArrTime UniqueCarrier
##    <int> <int>      <int>     <int>   <int>   <int>         <chr>
## 1   2011     1          1         6    1824    2106            AS
## 2   2011     1          2         7    1823    2103            AS
## 3   2011     1          3         1    1827    2107            AS
## 4   2011     1          4         2    1845    2132            AS
## 5   2011     1          5         3    1821    2109            AS
## 6   2011     1          6         4    1834    2133            AS
## 7   2011     1          7         5    1823    2118            AS
## 8   2011     1          8         6    1822    2112            AS
## 9   2011     1          9         7    1938    2228            AS
## 10  2011     1         10         1    1820    2159            AS
## # ... with 65,379 more rows, and 14 more variables: FlightNum <int>,
## #   TailNum <chr>, ActualElapsedTime <int>, AirTime <int>, ArrDelay <int>,
## #   DepDelay <int>, Origin <chr>, Dest <chr>, Distance <int>,
## #   TaxiIn <int>, TaxiOut <int>, Cancelled <int>, CancellationCode <chr>,
## #   Diverted <int>
```
…
